{"failedCount":0,"prefixedPath":"classpath:tests\/FirstTest.feature","packageQualifiedName":"tests.FirstTest","loopIndex":-1,"relativePath":"tests\/FirstTest.feature","scenarioResults":[{"sectionIndex":0,"stepResults":[{"result":{"nanos":58282083,"startTime":1757017637082,"endTime":1757017637140,"millis":58.282083,"status":"passed"},"step":{"line":4,"prefix":"Given","index":0,"text":"url 'https:\/\/reqres.in\/api\/users?page=2'"}},{"result":{"nanos":1043757208,"startTime":1757017637143,"endTime":1757017638187,"millis":1043.757208,"status":"passed"},"step":{"line":5,"prefix":"When","index":1,"text":"method get"},"stepLog":"01:57:17.427 request:\n1 > GET https:\/\/reqres.in\/api\/users?page=2\n1 > Host: reqres.in\n1 > Connection: Keep-Alive\n1 > User-Agent: Apache-HttpClient\/4.5.14 (Java\/17.0.2)\n1 > Accept-Encoding: gzip,deflate\n\n\n01:57:18.152 response time in milliseconds: 718\n1 < 200\n1 < Date: Thu, 04 Sep 2025 20:27:18 GMT\n1 < Content-Type: application\/json; charset=utf-8\n1 < Transfer-Encoding: chunked\n1 < Connection: keep-alive\n1 < Access-Control-Allow-Credentials: true\n1 < Access-Control-Allow-Headers: Origin, X-Requested-With, Content-Type, Accept, Authorization, x-api-key\n1 < Access-Control-Allow-Methods: GET, POST, PUT, DELETE, OPTIONS\n1 < Access-Control-Allow-Origin: http:\/\/localhost:5173\n1 < Etag: W\/\"440-ZjsmMKR8P3usr2uJZbOCGCxC3Uw\"\n1 < Nel: {\"report_to\":\"heroku-nel\",\"response_headers\":[\"Via\"],\"max_age\":3600,\"success_fraction\":0.01,\"failure_fraction\":0.1}\n1 < Ratelimit-Limit: 100\n1 < Ratelimit-Policy: 100;w=60\n1 < Ratelimit-Remaining: 98\n1 < Ratelimit-Reset: 60\n1 < Referrer-Policy: strict-origin-when-cross-origin\n1 < Report-To: {\"group\":\"heroku-nel\",\"endpoints\":[{\"url\":\"https:\/\/nel.heroku.com\/reports?s=3b1twPqmNmw8GGNih1hz1JD07XdZ1LEnQr2BgkZQWVA%3D\\u0026sid=c4c9725f-1ab0-44d8-820f-430df2718e11\\u0026ts=1757012980\"}],\"max_age\":3600}\n1 < Reporting-Endpoints: heroku-nel=\"https:\/\/nel.heroku.com\/reports?s=3b1twPqmNmw8GGNih1hz1JD07XdZ1LEnQr2BgkZQWVA%3D&sid=c4c9725f-1ab0-44d8-820f-430df2718e11&ts=1757012980\"\n1 < Vary: Origin, Accept-Encoding\n1 < Via: 1.1 heroku-router\n1 < X-Content-Type-Options: nosniff\n1 < X-Frame-Options: DENY\n1 < X-Request-Id: 20343c56-9ef9-1b93-bc72-bcc066305a11\n1 < X-Xss-Protection: 1; mode=block\n1 < Age: 4657\n1 < Cache-Control: max-age=14400\n1 < cf-cache-status: HIT\n1 < Server: cloudflare\n1 < CF-RAY: 97a03a0e9b33ad28-MAA\n1 < server-timing: cfL4;desc=\"?proto=TCP&rtt=26767&min_rtt=26402&rtt_var=10630&sent=7&recv=7&lost=0&retrans=0&sent_bytes=3103&recv_bytes=774&delivery_rate=137916&cwnd=252&unsent_bytes=0&cid=2c50b630f7272537&ts=212&x=0\"\n{\"page\":2,\"per_page\":6,\"total\":12,\"total_pages\":2,\"data\":[{\"id\":7,\"email\":\"michael.lawson@reqres.in\",\"first_name\":\"Michael\",\"last_name\":\"Lawson\",\"avatar\":\"https:\/\/reqres.in\/img\/faces\/7-image.jpg\"},{\"id\":8,\"email\":\"lindsay.ferguson@reqres.in\",\"first_name\":\"Lindsay\",\"last_name\":\"Ferguson\",\"avatar\":\"https:\/\/reqres.in\/img\/faces\/8-image.jpg\"},{\"id\":9,\"email\":\"tobias.funke@reqres.in\",\"first_name\":\"Tobias\",\"last_name\":\"Funke\",\"avatar\":\"https:\/\/reqres.in\/img\/faces\/9-image.jpg\"},{\"id\":10,\"email\":\"byron.fields@reqres.in\",\"first_name\":\"Byron\",\"last_name\":\"Fields\",\"avatar\":\"https:\/\/reqres.in\/img\/faces\/10-image.jpg\"},{\"id\":11,\"email\":\"george.edwards@reqres.in\",\"first_name\":\"George\",\"last_name\":\"Edwards\",\"avatar\":\"https:\/\/reqres.in\/img\/faces\/11-image.jpg\"},{\"id\":12,\"email\":\"rachel.howell@reqres.in\",\"first_name\":\"Rachel\",\"last_name\":\"Howell\",\"avatar\":\"https:\/\/reqres.in\/img\/faces\/12-image.jpg\"}],\"support\":{\"url\":\"https:\/\/contentcaddy.io?utm_source=reqres&utm_medium=json&utm_campaign=referral\",\"text\":\"Tired of writing endless social media content? Let Content Caddy generate it for you.\"}}\n\n"},{"result":{"nanos":31042,"startTime":1757017638188,"endTime":1757017638188,"millis":0.031042,"status":"passed"},"step":{"line":6,"prefix":"Then","index":2,"text":"status 200"}}],"executorName":"main","line":3,"name":"Test a sample","description":"","durationMillis":1102.070333,"startTime":1757017637047,"failed":false,"refId":"[1:3]","endTime":1757017638188,"exampleIndex":-1}],"callDepth":0,"name":"Sample API Tests","description":"","resultDate":"2025-09-05 01:57:18 am","durationMillis":1102.070333,"passedCount":1}